<?xml version="1.0" encoding="utf-8"?>
<!-- Generator: Adobe Illustrator 23.0.4, SVG Export Plug-In . SVG Version: 6.00 Build 0)  -->
<svg version="1.1" id="Layer_1" xmlns="http://www.w3.org/2000/svg" xmlns:xlink="http://www.w3.org/1999/xlink" x="0px" y="0px"
	 viewBox="0 0 572 324" style="enable-background:new 0 0 572 324;" xml:space="preserve">
<style type="text/css">
	.st0{fill:#9B9A9F;}
	.st1{enable-background:new    ;}
	.st2{fill:#009ED1;}
</style>
<g>
	<g>
		<path class="st0" d="M94.8,238.3c-5.4,0-8-2.8-8-8.4v-43.8c0-12.7-3.1-21.9-9.2-27.5c-6.2-5.6-15.1-8.4-26.7-8.4
			c-7.1,0-13.6,0.9-19.7,2.7c-6.1,1.8-11,4.6-14.6,8.2c-3.7,3.7-5.5,8.2-5.5,13.5c0,3.3,1.1,5.9,3.2,8c2.2,2,4.9,3,8.1,3
			c3.5,0,6.5-1.2,8.8-3.6c2.4-2.4,3.7-6.2,4.1-11.5l0.6-2.6c0.5-4.3,1.7-7.4,3.4-9.3c1.8-1.9,4.2-2.8,7.2-2.8h0.6
			c4.8,0,8.4,1.7,10.6,5.1c2.2,3.4,3.3,9.6,3.3,18.5v13.9c-2.9,0.5-5.8,1-8.7,1.5s-5.5,1-7.8,1.5c-13.1,2.5-22.7,6.4-28.8,11.7
			c-6.1,5.3-9.1,11.1-9.1,17.4c0,8,2.6,14.1,7.8,18.4c5.2,4.3,11.5,6.4,18.9,6.4c6.5,0,11.8-1.4,15.9-4.1c4.1-2.7,8.2-6.3,12.4-10.8
			c1,4.5,3.2,8,6.6,10.7c3.3,2.7,7.8,4,13.4,4c5,0,8.9-0.8,11.8-2.5c2.9-1.6,5.5-4,7.9-7l-2-2.2L94.8,238.3L94.8,238.3z M61.1,229.9
			c-3.5,2.7-6.5,4.7-8.8,5.9c-2.4,1.2-4.8,1.8-7.5,1.8c-3.8,0-6.9-1.3-9.3-3.8c-2.4-2.6-3.6-6.4-3.6-11.7c0-6,1.7-10.8,5.2-14.3
			s8-6,13.6-7.3c3.5-0.8,7-1.4,10.4-2L61.1,229.9L61.1,229.9z"/>
		<path class="st0" d="M149.9,137.3c3,2.7,6.7,4.1,11,4.1s8-1.4,11-4.1c3-2.7,4.5-6.2,4.5-10.4c0-4.3-1.5-7.8-4.5-10.5s-6.7-4-11-4
			s-8,1.3-11,4s-4.5,6.2-4.5,10.5C145.4,131.1,146.9,134.5,149.9,137.3z"/>
		<path class="st0" d="M279.6,238.3c-5.4,0-8-2.8-8-8.4v-43.8c0-12.7-3.1-21.9-9.2-27.5c-6.2-5.6-15.1-8.4-26.7-8.4
			c-7.1,0-13.6,0.9-19.7,2.7c-6.1,1.8-11,4.6-14.6,8.2c-3.7,3.7-5.5,8.2-5.5,13.5c0,3.3,1.1,5.9,3.2,8c2.2,2,4.9,3,8.1,3
			c3.5,0,6.5-1.2,8.8-3.6c2.4-2.4,3.7-6.2,4.1-11.5l0.6-2.6c0.5-4.3,1.7-7.4,3.4-9.3c1.8-1.9,4.2-2.8,7.2-2.8h0.6
			c4.8,0,8.4,1.7,10.6,5.1s3.3,9.6,3.3,18.5v13.9c-2.9,0.5-5.8,1-8.7,1.5c-2.9,0.5-5.5,1-7.8,1.5c-13.1,2.5-22.7,6.4-28.8,11.7
			c-6.1,5.3-9.1,11.1-9.1,17.4c0,8,2.6,14.1,7.8,18.4c5.2,4.3,11.5,6.4,18.9,6.4c6.5,0,11.8-1.4,15.9-4.1s8.2-6.3,12.4-10.8
			c1,4.5,3.2,8,6.6,10.7s7.8,4,13.4,4c5,0,8.9-0.8,11.8-2.5c2.9-1.6,5.5-4,7.9-7l-2-2.2L279.6,238.3L279.6,238.3z M245.8,229.9
			c-3.5,2.7-6.5,4.7-8.8,5.9c-2.4,1.2-4.8,1.8-7.5,1.8c-3.8,0-6.9-1.3-9.3-3.8c-2.4-2.6-3.6-6.4-3.6-11.7c0-6,1.7-10.8,5.2-14.3
			s8-6,13.6-7.3c3.5-0.8,7-1.4,10.4-2L245.8,229.9L245.8,229.9z"/>
		<path class="st0" d="M477.5,238.3c-5.4,0-8-2.8-8-8.4v-43.8c0-12.7-3.1-21.9-9.2-27.5c-6.2-5.6-15.1-8.4-26.7-8.4
			c-7.1,0-13.6,0.9-19.7,2.7c-6.1,1.8-11,4.6-14.6,8.2c-3.7,3.7-5.5,8.2-5.5,13.5c0,3.3,1.1,5.9,3.2,8c2.2,2,4.9,3,8.1,3
			c3.5,0,6.5-1.2,8.8-3.6c2.4-2.4,3.7-6.2,4.1-11.5l0.6-2.6c0.5-4.3,1.7-7.4,3.4-9.3c1.8-1.9,4.2-2.8,7.2-2.8h0.6
			c4.8,0,8.4,1.7,10.6,5.1c2.2,3.4,3.3,9.6,3.3,18.5v13.9c-2.9,0.5-5.8,1-8.7,1.5s-5.5,1-7.8,1.5c-13.1,2.5-22.7,6.4-28.8,11.7
			c-6.1,5.3-9.1,11.1-9.1,17.4c0,8,2.6,14.1,7.8,18.4c5.2,4.3,11.5,6.4,18.9,6.4c6.5,0,11.8-1.4,15.9-4.1c4.1-2.7,8.2-6.3,12.4-10.8
			c1,4.5,3.2,8,6.6,10.7s7.8,4,13.4,4c5,0,8.9-0.8,11.8-2.5c2.9-1.6,5.5-4,7.9-7l-2-2.2L477.5,238.3L477.5,238.3z M443.7,229.9
			c-3.5,2.7-6.5,4.7-8.8,5.9c-2.4,1.2-4.8,1.8-7.5,1.8c-3.8,0-6.9-1.3-9.3-3.8c-2.4-2.6-3.6-6.4-3.6-11.7c0-6,1.7-10.8,5.2-14.3
			s8-6,13.6-7.3c3.5-0.8,7-1.4,10.4-2L443.7,229.9L443.7,229.9z"/>
		<path class="st0" d="M138.1,235.4c-5.5,0-8.3-2.9-8.3-8.7v-4.2h0.1V139l0.5-19.4h-27.1v10.1c0,0.6,0.1,1.2,0.1,1.8v74.6
			c0,4.5,0,8.9-0.1,13.4c0,1,0,2,0,2.9h0.1v2.7c0.1,3.2,0.5,6.7,1.3,9.3c1.2,3.5,3.3,6.4,6.1,8.7c3.4,2.8,8.1,4.1,13.9,4.1
			c5.1,0,9.2-0.8,12.1-2.5c3-1.7,5.7-4.1,8.1-7.2l-2-2.2h-4.8L138.1,235.4L138.1,235.4z"/>
		<path class="st0" d="M381.2,235.4c-5.5,0-8.3-2.9-8.3-8.7v-5.2l0,0V139l0.6-19.4h-26.4v8.4c0.2,1,0.3,2.1,0.3,3.3v25.5
			c-3.3-2.2-7.1-3.9-11.4-5s-8.8-1.7-13.5-1.7c-7.9,0-15.1,1.9-21.6,5.7c-6.5,3.8-11.8,9.5-15.7,17c-3.9,7.5-5.9,16.9-5.9,28.2
			c0,11.3,1.7,20.5,5.2,27.8s8.3,12.6,14.4,16.1s13.1,5.2,20.8,5.2c5.5,0,10.5-0.8,15.1-2.4c4.3-1.5,8.1-3.5,11.5-6v-6.1
			c-4.9,3.6-10.2,5.4-15.8,5.4c-6.8,0-12.4-3-16.7-9c-4.3-6-6.5-16.5-6.5-31.4s2.3-25.7,6.9-32.5c4.6-6.7,10.1-10.1,16.5-10.1
			c5.6,0,10.9,1.5,15.7,4.5V218l0,0v7.1c0.1,3.2,0.5,6.7,1.3,9.3c1.2,3.5,3.3,6.4,6.1,8.7c3.4,2.8,8.1,4.1,13.9,4.1
			c5.1,0,9.2-0.8,12.1-2.5c3-1.7,5.7-4.1,8.1-7.2l-2-2.2h-4.7V235.4z"/>
		<path class="st0" d="M182.9,235.4c-5.5,0-8.3-2.9-8.3-8.7V218h-0.2v-37.8l0.6-27.9l-2.4-2.2l-24.6,8.2v19.5
			c0.1,2.6,0.1,5.2,0.1,7.8c0,3.5,0,7.2,0,11.3V218l0,0v7.1c0.1,3.2,0.5,6.7,1.3,9.3c1.2,3.5,3.3,6.4,6.1,8.7
			c3.4,2.8,8.1,4.1,13.9,4.1c5.1,0,9.2-0.8,12.1-2.5c3-1.7,5.7-4.1,8.1-7.2l-2-2.2h-4.7V235.4z"/>
		<path class="st0" d="M557.6,201.2c-4.1-5-10.9-9-20.4-12l-8.4-2.6c-6.7-2.2-11.5-4.6-14.5-7.2s-4.5-5.9-4.5-9.9
			c0-4.3,1.8-7.7,5.4-10.1c3.6-2.4,7.8-3.6,12.5-3.6c3.7,0,6.6,0.6,8.7,1.7c7,3,13.9,10.3,19,16.8l1-17.1c-4.3-2.2-8.7-4-13.3-5.2
			c-4.5-1.2-9.5-1.9-14.8-1.9c-8.2,0-15.2,1.4-21,4.1s-10.1,6.4-13.2,11.1c-3,4.6-4.5,9.8-4.5,15.4c0,7.2,2.3,13.2,6.8,18
			s10.6,8.3,18.4,10.7l8.6,2.7c7.1,2.2,12,4.6,14.7,7.3c2.7,2.6,4.1,6,4.1,10.2c0,4.6-1.8,8.2-5.5,10.9c-3.7,2.7-8.6,4-14.7,4
			c-1.8,0-3.5-0.2-5.1-0.5l0,0c-0.1,0-0.2,0-0.3-0.1c-0.5-0.1-0.9-0.2-1.4-0.3c-0.1,0-0.2-0.1-0.3-0.1s-0.2-0.1-0.3-0.1
			c-1-0.3-1.9-0.7-2.8-1.1c-8.7-4.3-17.1-14.8-21.9-21.8v21.6c4.6,2.5,9.4,4.4,14.4,5.8s10.7,2.1,17,2.1c13.5,0,23.9-2.8,31.3-8.5
			c7.4-5.7,11.1-13.2,11.1-22.5C563.7,212.1,561.7,206.2,557.6,201.2z"/>
	</g>
	<g class="st1">
		<path class="st2" d="M127.4,309.6v-0.9l1.2-0.3c0.5-0.1,0.9-0.4,1.1-0.8c0.2-0.4,0.3-0.9,0.3-1.4v-20.3c-0.3-0.5-0.5-0.9-0.7-1.2
			c-0.2-0.3-0.4-0.5-0.6-0.7c-0.2-0.2-0.5-0.4-0.8-0.7l-0.8-0.5v-0.9h7.2l13.9,19.1v-15.6c0-0.6-0.1-1-0.3-1.5
			c-0.2-0.4-0.6-0.7-1.1-0.8l-1.3-0.3v-0.9h6.3v0.9l-1,0.3c-0.5,0.2-0.9,0.5-1,0.9s-0.2,0.9-0.2,1.4v24.4h-2.4l-16-22v18.3
			c0,0.6,0.1,1.1,0.3,1.5s0.5,0.7,1,0.8l1.1,0.3v0.9L127.4,309.6L127.4,309.6z"/>
		<path class="st2" d="M163.6,310.2c-2.1,0-3.9-0.4-5.4-1.3c-1.6-0.9-2.8-2.1-3.6-3.7c-0.9-1.6-1.3-3.5-1.3-5.7s0.5-4.1,1.4-5.7
			s2.1-2.8,3.7-3.7c1.6-0.9,3.3-1.3,5.3-1.3s3.7,0.4,5.3,1.3s2.8,2.1,3.7,3.7s1.4,3.5,1.4,5.7s-0.4,4.1-1.3,5.7
			c-0.9,1.6-2,2.8-3.6,3.7C167.5,309.7,165.7,310.2,163.6,310.2z M163.6,309c1,0,1.8-0.3,2.5-0.8c0.6-0.5,1.1-1.5,1.4-2.9
			c0.3-1.4,0.4-3.3,0.4-5.7c0-2.5-0.1-4.4-0.4-5.8c-0.3-1.4-0.7-2.3-1.4-2.9c-0.6-0.5-1.4-0.8-2.5-0.8s-1.8,0.3-2.4,0.8
			c-0.6,0.5-1.1,1.5-1.4,2.9c-0.3,1.4-0.4,3.3-0.4,5.8s0.1,4.4,0.4,5.7c0.3,1.4,0.7,2.3,1.4,2.9C161.8,308.7,162.6,309,163.6,309z"
			/>
		<path class="st2" d="M183.1,310.2c-1.3,0-2.6-0.1-3.6-0.4c-1.1-0.3-2.1-0.7-3.1-1.2v-5h1.1l1.3,2.4c0.5,1,1.1,1.8,1.8,2.3
			c0.7,0.5,1.6,0.8,2.6,0.8c1.3,0,2.4-0.3,3.1-0.9c0.8-0.6,1.2-1.3,1.2-2.3c0-0.9-0.3-1.6-0.9-2.2s-1.6-1.1-3.1-1.6l-1.8-0.6
			c-1.7-0.5-3-1.3-3.9-2.3c-1-1-1.4-2.3-1.4-3.8c0-1.2,0.3-2.3,1-3.3c0.6-1,1.6-1.8,2.8-2.4c1.2-0.6,2.7-0.9,4.5-0.9
			c1.1,0,2.2,0.1,3.2,0.4s1.9,0.6,2.8,1.1l-0.3,4.5h-1.1l-1.3-2.4c-0.4-0.9-0.9-1.5-1.4-1.9c-0.5-0.3-1.2-0.5-2.1-0.5
			c-1,0-1.9,0.3-2.7,0.8s-1.2,1.2-1.2,2.2c0,0.9,0.3,1.6,1,2.1c0.6,0.5,1.7,1.1,3.1,1.5l1.8,0.5c2,0.6,3.5,1.5,4.4,2.6
			s1.3,2.3,1.3,3.8c0,2-0.8,3.6-2.4,4.8C188.2,309.5,186,310.2,183.1,310.2z"/>
		<path class="st2" d="M210.8,310.2c-1.1,0-2.1-0.2-3-0.6s-1.6-1.1-2.1-2s-0.8-2.2-0.7-3.7l0.1-10.5c0-0.6-0.1-1.1-0.3-1.3
			c-0.2-0.3-0.5-0.5-1-0.6l-0.5-0.2v-0.8l7.2-1.4l0.5,0.5l-0.2,5.9v9.5c0,1,0.3,1.6,0.8,2.1c0.5,0.4,1.2,0.7,2,0.7s1.5-0.1,2.2-0.4
			c0.7-0.2,1.3-0.6,2-1.1l0.1-12.9c0-0.6-0.1-1.1-0.3-1.3c-0.2-0.3-0.5-0.4-1-0.6l-0.5-0.1v-0.8l7-1.5l0.5,0.5l-0.1,5.9v11
			c0,0.6,0.1,1.1,0.2,1.4c0.2,0.4,0.5,0.6,1,0.8l0.5,0.2v0.8l-7.1,0.4l-0.4-2.6c-1,0.8-2,1.5-3.1,2S212.2,310.2,210.8,310.2z"/>
		<path class="st2" d="M226.9,309.6v-0.8l0.7-0.2c0.9-0.3,1.4-1,1.4-2.1v-12.4c0-0.6-0.1-1-0.3-1.4c-0.2-0.3-0.5-0.5-1.1-0.7
			l-0.7-0.2V291l6.8-2.4l0.5,0.5l0.3,2.6c1-0.9,2.1-1.6,3.4-2.2c1.2-0.6,2.5-0.9,3.7-0.9c1.8,0,3.3,0.5,4.3,1.5s1.5,2.5,1.5,4.6
			v11.7c0,1.1,0.5,1.8,1.5,2.1l0.5,0.1v0.8h-9.7v-0.8l0.6-0.2c0.9-0.3,1.4-1,1.4-2.1v-12.5c0-1-0.2-1.7-0.6-2.1S240,291,239,291
			c-1.4,0-2.8,0.6-4.3,1.8v13.5c0,1.1,0.5,1.8,1.5,2.1l0.4,0.1v0.8h-9.7V309.6z"/>
		<path class="st2" d="M261.5,288.8c1.8,0,3.3,0.4,4.5,1.1c1.3,0.7,2.2,1.7,2.9,3c0.7,1.3,1,2.7,1,4.4c0,0.4,0,0.7,0,1
			s-0.1,0.6-0.2,0.9h-12.6c0,2.9,0.6,5,1.6,6.2c1,1.3,2.6,1.9,4.6,1.9c1.4,0,2.5-0.2,3.4-0.7s1.7-1.1,2.4-2l0.7,0.6
			c-0.8,1.5-2,2.7-3.4,3.6s-3.2,1.3-5.1,1.3c-2,0-3.7-0.4-5.2-1.3c-1.5-0.8-2.7-2-3.5-3.6c-0.9-1.6-1.3-3.5-1.3-5.7
			c0-2.3,0.5-4.2,1.5-5.8c1-1.6,2.3-2.8,3.9-3.7C258.1,289.2,259.7,288.8,261.5,288.8z M261.3,290c-0.8,0-1.5,0.2-2.1,0.7
			s-1.1,1.3-1.4,2.4c-0.4,1.2-0.6,2.8-0.6,4.9h7.5c0.3-2.8,0.2-4.9-0.3-6.1C263.8,290.6,262.8,290,261.3,290z"/>
		<path class="st2" d="M281.4,309.6v-0.8l0.6-0.2c0.9-0.3,1.4-1,1.4-2.1c0-1,0-1.9,0-2.9s0-1.9,0-2.9v-15.9c0-0.6-0.1-1-0.3-1.3
			c-0.2-0.3-0.6-0.5-1.1-0.7l-0.6-0.2v-0.8l7.3-1.8l0.5,0.4l-0.2,5.9v20.1c0,0.6,0.1,1,0.4,1.4c0.2,0.4,0.6,0.6,1.1,0.7l0.6,0.2v0.8
			L281.4,309.6L281.4,309.6z"/>
		<path class="st2" d="M298.8,310.2c-1.6,0-2.9-0.5-4-1.4s-1.7-2.2-1.7-3.9c0-1.3,0.7-2.6,2-3.7s3.4-2,6.1-2.5
			c0.5-0.1,1-0.2,1.7-0.3c0.6-0.1,1.3-0.2,1.9-0.3v-3c0-1.9-0.2-3.2-0.7-3.9c-0.5-0.7-1.2-1.1-2.3-1.1h-0.1c-0.6,0-1.2,0.2-1.5,0.6
			c-0.4,0.4-0.6,1.1-0.7,2l-0.1,0.5c-0.1,1.1-0.4,1.9-0.9,2.5c-0.5,0.5-1.1,0.8-1.9,0.8c-0.7,0-1.3-0.2-1.7-0.7
			c-0.5-0.4-0.7-1-0.7-1.7c0-1.1,0.4-2.1,1.2-2.9c0.8-0.8,1.8-1.4,3.1-1.8c1.3-0.4,2.7-0.6,4.2-0.6c2.5,0,4.4,0.6,5.7,1.8
			c1.3,1.2,2,3.2,2,5.9v9.4c0,1.2,0.6,1.8,1.7,1.8h1l0.4,0.5c-0.5,0.6-1.1,1.1-1.7,1.5c-0.6,0.3-1.5,0.5-2.5,0.5
			c-1.2,0-2.2-0.3-2.9-0.9c-0.7-0.6-1.2-1.3-1.4-2.3c-0.9,1-1.8,1.7-2.6,2.3S300.2,310.2,298.8,310.2z M301.2,307.5
			c0.6,0,1.1-0.1,1.6-0.4s1.1-0.7,1.9-1.3v-6.7c-0.7,0.1-1.5,0.3-2.2,0.4c-1.2,0.3-2.2,0.8-2.9,1.6c-0.7,0.8-1.1,1.8-1.1,3.1
			c0,1.1,0.3,2,0.8,2.5C299.7,307.2,300.4,307.5,301.2,307.5z"/>
		<path class="st2" d="M323.5,319.3v-0.8l0.5-0.2c0.6-0.1,1-0.4,1.2-0.7c0.2-0.3,0.3-0.8,0.3-1.4c0-1.1,0-2.2,0-3.3c0-1,0-2,0-3
			v-11.5c0-0.9,0-1.6,0-2.2s0-1.3,0-2.1c0-0.6-0.1-1-0.3-1.4c-0.2-0.3-0.6-0.5-1.1-0.7l-0.6-0.1v-0.8l6.8-2.4l0.5,0.4l0.4,1.6
			c1.9-1.3,4.1-2,6.5-2s4.3,0.9,5.7,2.7c1.4,1.8,2.2,4.4,2.2,7.9c0,3.4-0.8,6-2.4,7.9s-3.7,2.8-6.4,2.8c-1.1,0-2.1-0.1-3.1-0.3
			c-1-0.2-1.8-0.5-2.6-0.9v1.3c0,0.8,0,1.7,0,2.7s0,2,0,3.2c0,1.1,0.5,1.8,1.5,2.1l0.8,0.2v0.8h-9.9V319.3z M334.8,308.5
			c1.5,0,2.7-0.7,3.5-2c0.9-1.3,1.3-3.6,1.3-6.9c0-3.2-0.4-5.5-1.2-6.8s-2-2-3.4-2c-0.5,0-1.1,0.1-1.7,0.3s-1.3,0.4-2,0.8v15.9
			C332.3,308.2,333.5,308.5,334.8,308.5z"/>
		<path class="st2" d="M353.4,310.2c-1.6,0-2.9-0.5-4-1.4s-1.7-2.2-1.7-3.9c0-1.3,0.7-2.6,2-3.7s3.4-2,6.1-2.5
			c0.5-0.1,1-0.2,1.7-0.3s1.3-0.2,1.9-0.3v-3c0-1.9-0.2-3.2-0.7-3.9c-0.5-0.7-1.2-1.1-2.3-1.1h-0.1c-0.6,0-1.2,0.2-1.5,0.6
			c-0.4,0.4-0.6,1.1-0.7,2l-0.1,0.5c-0.1,1.1-0.4,1.9-0.9,2.5c-0.5,0.5-1.1,0.8-1.9,0.8c-0.7,0-1.3-0.2-1.7-0.7
			c-0.5-0.4-0.7-1-0.7-1.7c0-1.1,0.4-2.1,1.2-2.9c0.8-0.8,1.8-1.4,3.1-1.8c1.3-0.4,2.7-0.6,4.2-0.6c2.5,0,4.4,0.6,5.7,1.8
			c1.3,1.2,2,3.2,2,5.9v9.4c0,1.2,0.6,1.8,1.7,1.8h1l0.4,0.5c-0.5,0.6-1.1,1.1-1.7,1.5c-0.6,0.3-1.5,0.5-2.5,0.5
			c-1.2,0-2.2-0.3-2.9-0.9c-0.7-0.6-1.2-1.3-1.4-2.3c-0.9,1-1.8,1.7-2.6,2.3S354.8,310.2,353.4,310.2z M355.8,307.5
			c0.6,0,1.1-0.1,1.6-0.4s1.1-0.7,1.9-1.3v-6.7c-0.7,0.1-1.5,0.3-2.2,0.4c-1.2,0.3-2.2,0.8-2.9,1.6c-0.7,0.8-1.1,1.8-1.1,3.1
			c0,1.1,0.3,2,0.8,2.5S355,307.5,355.8,307.5z"/>
		<path class="st2" d="M376.1,310.2c-1.3,0-2.6-0.1-3.6-0.4c-1.1-0.3-2.1-0.7-3.1-1.2v-5h1.1l1.3,2.4c0.5,1,1.1,1.8,1.8,2.3
			c0.7,0.5,1.6,0.8,2.6,0.8c1.3,0,2.4-0.3,3.1-0.9c0.8-0.6,1.2-1.3,1.2-2.3c0-0.9-0.3-1.6-0.9-2.2s-1.6-1.1-3.1-1.6l-1.8-0.6
			c-1.7-0.5-3-1.3-3.9-2.3c-1-1-1.4-2.3-1.4-3.8c0-1.2,0.3-2.3,1-3.3c0.6-1,1.6-1.8,2.8-2.4c1.2-0.6,2.7-0.9,4.5-0.9
			c1.1,0,2.2,0.1,3.2,0.4s1.9,0.6,2.8,1.1l-0.3,4.5h-1.1l-1.3-2.4c-0.4-0.9-0.9-1.5-1.4-1.9c-0.5-0.3-1.2-0.5-2.1-0.5
			c-1,0-1.9,0.3-2.7,0.8s-1.2,1.2-1.2,2.2c0,0.9,0.3,1.6,1,2.1c0.6,0.5,1.7,1.1,3.1,1.5l1.8,0.5c2,0.6,3.5,1.5,4.4,2.6
			s1.3,2.3,1.3,3.8c0,2-0.8,3.6-2.4,4.8C381.2,309.5,379,310.2,376.1,310.2z"/>
		<path class="st2" d="M387.1,309.6v-0.8l0.6-0.2c0.6-0.2,0.9-0.4,1.1-0.8c0.2-0.3,0.3-0.8,0.3-1.3v-7.7c0-0.9,0-1.7,0-2.4
			s0-1.5,0-2.3c0-0.6-0.1-1-0.3-1.3c-0.2-0.3-0.6-0.5-1.2-0.7L387,292v-0.8l7.3-2.4l0.5,0.5l-0.1,6v11.3c0,0.6,0.1,1,0.3,1.3
			s0.6,0.6,1.1,0.8l0.5,0.1v0.8H387.1z M391.9,286.5c-0.9,0-1.7-0.3-2.4-0.9c-0.6-0.6-1-1.3-1-2.2c0-0.9,0.3-1.7,1-2.2
			c0.6-0.6,1.4-0.9,2.4-0.9c0.9,0,1.7,0.3,2.4,0.9c0.6,0.6,1,1.3,1,2.2c0,0.9-0.3,1.6-1,2.2C393.6,286.2,392.8,286.5,391.9,286.5z"
			/>
		<path class="st2" d="M409,310.2c-2.1,0-3.9-0.4-5.4-1.3c-1.6-0.9-2.8-2.1-3.6-3.7c-0.9-1.6-1.3-3.5-1.3-5.7s0.5-4.1,1.4-5.7
			s2.1-2.8,3.7-3.7c1.6-0.9,3.3-1.3,5.3-1.3s3.7,0.4,5.3,1.3c1.6,0.9,2.8,2.1,3.7,3.7c0.9,1.6,1.4,3.5,1.4,5.7s-0.4,4.1-1.3,5.7
			s-2,2.8-3.6,3.7C412.9,309.7,411.1,310.2,409,310.2z M409,309c1,0,1.8-0.3,2.5-0.8c0.6-0.5,1.1-1.5,1.4-2.9s0.4-3.3,0.4-5.7
			c0-2.5-0.1-4.4-0.4-5.8s-0.7-2.3-1.4-2.9S410,290,409,290s-1.8,0.3-2.4,0.8s-1.1,1.5-1.4,2.9s-0.4,3.3-0.4,5.8s0.1,4.4,0.4,5.7
			c0.3,1.4,0.7,2.3,1.4,2.9C407.2,308.7,408,309,409,309z M406.4,285.4c0.4-0.8,0.9-1.6,1.4-2.5s1.1-2,1.8-3.3
			c0.5-0.9,0.9-1.5,1.4-1.9c0.4-0.4,1-0.6,1.5-0.6s1,0.2,1.4,0.5s0.6,0.8,0.6,1.3s-0.2,1-0.5,1.5c-0.4,0.4-1,1-1.8,1.6
			c-1.1,0.9-2.1,1.6-2.9,2.2s-1.5,1.2-2.2,1.7L406.4,285.4z"/>
		<path class="st2" d="M421.3,309.6v-0.8l0.7-0.2c0.9-0.3,1.4-1,1.4-2.1v-12.4c0-0.6-0.1-1-0.3-1.4c-0.2-0.3-0.5-0.5-1.1-0.7
			l-0.7-0.2V291l6.8-2.4l0.5,0.5l0.3,2.6c1-0.9,2.1-1.6,3.4-2.2c1.3-0.6,2.5-0.9,3.7-0.9c1.8,0,3.3,0.5,4.3,1.5s1.5,2.5,1.5,4.6
			v11.7c0,1.1,0.5,1.8,1.5,2.1l0.5,0.1v0.8H434v-0.8l0.6-0.2c0.9-0.3,1.4-1,1.4-2.1v-12.5c0-1-0.2-1.7-0.6-2.1s-1.1-0.7-2.1-0.7
			c-1.4,0-2.8,0.6-4.3,1.8v13.5c0,1.1,0.5,1.8,1.5,2.1l0.4,0.1v0.8h-9.6V309.6z"/>
	</g>
	<path class="st2" d="M339.8,28.4c-11.6-10.5-31.2-8.9-50,2.1c-11.6-18.1-28.2-28.2-43.2-24.2c-21.2,5.7-31.1,37.5-22,71.1
		c8.3,30.7,29.5,52.3,49.3,51.3c16.4,0.7,36.9-9.1,53.2-27.1C350.4,75.9,356.1,43.1,339.8,28.4z M244.7,45.3
		c2.9-9.5,8.5-15.7,15.6-17.7c1.5-0.4,3.1-0.6,4.6-0.6c6.2,0,12.4,3,17.9,8.1c-5.1,3.7-10.1,8.2-14.7,13.3
		c-10.8,11.9-17.8,25.3-20.6,37.7c-1-2.5-1.9-5.2-2.6-7.9C241.8,66.6,241.7,54.9,244.7,45.3z M283.6,114.3c-1.5,0.4-3.1,0.6-4.6,0.6
		c-6.3,0-12.7-3.1-18.3-8.5l0,0c-0.1-0.1-0.2-0.2-0.3-0.3c-1.5-1.4-2.9-3-4.2-4.8c-3.7-5.7-3.7-12.3-2.5-17.9
		c2.5-9.1,7.8-18.8,15.7-27.5c5.6-6.2,12.1-11.3,18.7-15c4.7,6.1,8.6,13.9,10.9,22.8C305.4,87.6,298.5,110.3,283.6,114.3z M315,97.3
		c-5.1,5.6-10.8,10.3-16.7,13.8c7-13.7,8.6-33.6,3-54.2c-1.8-6.8-4.3-13.1-7.2-18.8c5.4-2.2,10.7-3.4,15.7-3.4
		c6.2,0,11.5,1.9,15.4,5.4C337.9,51.4,333.3,77.1,315,97.3z"/>
</g>
</svg>
